{
  "project_info": {
    "project_number": "582207861539",
    "firebase_url": "https://stereo-8d141.firebaseio.com",
    "project_id": "stereo-8d141",
    "storage_bucket": "stereo-8d141.appspot.com"
  },
  "client": [
    {
      "client_info": {
        "mobilesdk_app_id": "1:582207861539:android:acd0bc5e5de1dc1ebad296",
        "android_client_info": {
          "package_name": "com.example.stereo"
        }
      },
      "oauth_client": [
        {
          "client_id": "582207861539-qdslqju3024bc1rr66a9nhminfp2upo3.apps.googleusercontent.com",
          "client_type": 1,
          "android_info": {
            "package_name": "com.example.stereo",
            "certificate_hash": "dcf091bd083012907dc337ab6cbc7f5b95f23cb5"
          }
        },
        {
          "client_id": "582207861539-p5tto4lp8ktqde4ri7s53uksn79k27iv.apps.googleusercontent.com",
          "client_type": 3
        }
      ],
      "api_key": [
        {
          "current_key": "AIzaSyC81zxsOjxI-kda8uoM-KxbicvOSBX63Ek"
        }
      ],
      "services": {
        "appinvite_service": {
          "other_platform_oauth_client": [
            {
              "client_id": "582207861539-p5tto4lp8ktqde4ri7s53uksn79k27iv.apps.googleusercontent.com",
              "client_type": 3
            }
          ]
        }
      }
    }
  ],
  "configuration_version": "1"
}